<?xml version="1.0" encoding="UTF-8" standalone="no"?>
<!-- Created with Inkscape (http://www.inkscape.org/) -->

<svg
   xmlns:dc="http://purl.org/dc/elements/1.1/"
   xmlns:cc="http://creativecommons.org/ns#"
   xmlns:rdf="http://www.w3.org/1999/02/22-rdf-syntax-ns#"
   xmlns:svg="http://www.w3.org/2000/svg"
   xmlns="http://www.w3.org/2000/svg"
   xmlns:sodipodi="http://sodipodi.sourceforge.net/DTD/sodipodi-0.dtd"
   xmlns:inkscape="http://www.inkscape.org/namespaces/inkscape"
   width="234.55867mm"
   height="134.39124mm"
   viewBox="0 0 234.55867 134.39124"
   version="1.1"
   id="svg8"
   inkscape:version="0.92.3 (2405546, 2018-03-11)"
   sodipodi:docname="Procedure.svg">
  <defs
     id="defs2">
    <marker
       inkscape:isstock="true"
       style="overflow:visible"
       id="marker1420"
       refX="0"
       refY="0"
       orient="auto"
       inkscape:stockid="Arrow1Lend">
      <path
         transform="matrix(-0.8,0,0,-0.8,-10,0)"
         style="fill:#000000;fill-opacity:1;fill-rule:evenodd;stroke:#000000;stroke-width:1.00000003pt;stroke-opacity:1"
         d="M 0,0 5,-5 -12.5,0 5,5 Z"
         id="path1418"
         inkscape:connector-curvature="0" />
    </marker>
    <marker
       inkscape:isstock="true"
       style="overflow:visible"
       id="marker1416"
       refX="0"
       refY="0"
       orient="auto"
       inkscape:stockid="Arrow1Lend">
      <path
         transform="matrix(-0.8,0,0,-0.8,-10,0)"
         style="fill:#000000;fill-opacity:1;fill-rule:evenodd;stroke:#000000;stroke-width:1.00000003pt;stroke-opacity:1"
         d="M 0,0 5,-5 -12.5,0 5,5 Z"
         id="path1414"
         inkscape:connector-curvature="0" />
    </marker>
    <marker
       inkscape:isstock="true"
       style="overflow:visible"
       id="marker1412"
       refX="0"
       refY="0"
       orient="auto"
       inkscape:stockid="Arrow1Lend">
      <path
         transform="matrix(-0.8,0,0,-0.8,-10,0)"
         style="fill:#000000;fill-opacity:1;fill-rule:evenodd;stroke:#000000;stroke-width:1.00000003pt;stroke-opacity:1"
         d="M 0,0 5,-5 -12.5,0 5,5 Z"
         id="path1410"
         inkscape:connector-curvature="0" />
    </marker>
    <marker
       inkscape:isstock="true"
       style="overflow:visible"
       id="marker1408"
       refX="0"
       refY="0"
       orient="auto"
       inkscape:stockid="Arrow1Lend">
      <path
         transform="matrix(-0.8,0,0,-0.8,-10,0)"
         style="fill:#000000;fill-opacity:1;fill-rule:evenodd;stroke:#000000;stroke-width:1.00000003pt;stroke-opacity:1"
         d="M 0,0 5,-5 -12.5,0 5,5 Z"
         id="path1406"
         inkscape:connector-curvature="0" />
    </marker>
    <marker
       inkscape:isstock="true"
       style="overflow:visible"
       id="marker1404"
       refX="0"
       refY="0"
       orient="auto"
       inkscape:stockid="Arrow1Lend">
      <path
         transform="matrix(-0.8,0,0,-0.8,-10,0)"
         style="fill:#000000;fill-opacity:1;fill-rule:evenodd;stroke:#000000;stroke-width:1.00000003pt;stroke-opacity:1"
         d="M 0,0 5,-5 -12.5,0 5,5 Z"
         id="path1402"
         inkscape:connector-curvature="0" />
    </marker>
    <marker
       inkscape:stockid="Arrow1Lend"
       orient="auto"
       refY="0"
       refX="0"
       id="marker1400"
       style="overflow:visible"
       inkscape:isstock="true"
       inkscape:collect="always">
      <path
         id="path1398"
         d="M 0,0 5,-5 -12.5,0 5,5 Z"
         style="fill:#000000;fill-opacity:1;fill-rule:evenodd;stroke:#000000;stroke-width:1.00000003pt;stroke-opacity:1"
         transform="matrix(-0.8,0,0,-0.8,-10,0)"
         inkscape:connector-curvature="0" />
    </marker>
    <marker
       inkscape:isstock="true"
       style="overflow:visible"
       id="marker1394"
       refX="0"
       refY="0"
       orient="auto"
       inkscape:stockid="Arrow1Lend">
      <path
         transform="matrix(-0.8,0,0,-0.8,-10,0)"
         style="fill:#000000;fill-opacity:1;fill-rule:evenodd;stroke:#000000;stroke-width:1.00000003pt;stroke-opacity:1"
         d="M 0,0 5,-5 -12.5,0 5,5 Z"
         id="path1392"
         inkscape:connector-curvature="0" />
    </marker>
    <marker
       inkscape:isstock="true"
       style="overflow:visible"
       id="marker1390"
       refX="0"
       refY="0"
       orient="auto"
       inkscape:stockid="Arrow1Lend">
      <path
         transform="matrix(-0.8,0,0,-0.8,-10,0)"
         style="fill:#000000;fill-opacity:1;fill-rule:evenodd;stroke:#000000;stroke-width:1.00000003pt;stroke-opacity:1"
         d="M 0,0 5,-5 -12.5,0 5,5 Z"
         id="path1388"
         inkscape:connector-curvature="0" />
    </marker>
    <marker
       inkscape:isstock="true"
       style="overflow:visible"
       id="marker1386"
       refX="0"
       refY="0"
       orient="auto"
       inkscape:stockid="Arrow1Lend">
      <path
         transform="matrix(-0.8,0,0,-0.8,-10,0)"
         style="fill:#000000;fill-opacity:1;fill-rule:evenodd;stroke:#000000;stroke-width:1.00000003pt;stroke-opacity:1"
         d="M 0,0 5,-5 -12.5,0 5,5 Z"
         id="path1384"
         inkscape:connector-curvature="0" />
    </marker>
    <marker
       inkscape:isstock="true"
       style="overflow:visible"
       id="marker1382"
       refX="0"
       refY="0"
       orient="auto"
       inkscape:stockid="Arrow1Lend">
      <path
         transform="matrix(-0.8,0,0,-0.8,-10,0)"
         style="fill:#000000;fill-opacity:1;fill-rule:evenodd;stroke:#000000;stroke-width:1.00000003pt;stroke-opacity:1"
         d="M 0,0 5,-5 -12.5,0 5,5 Z"
         id="path1380"
         inkscape:connector-curvature="0" />
    </marker>
    <marker
       inkscape:stockid="Arrow1Lend"
       orient="auto"
       refY="0"
       refX="0"
       id="marker1378"
       style="overflow:visible"
       inkscape:isstock="true"
       inkscape:collect="always">
      <path
         id="path1376"
         d="M 0,0 5,-5 -12.5,0 5,5 Z"
         style="fill:#000000;fill-opacity:1;fill-rule:evenodd;stroke:#000000;stroke-width:1.00000003pt;stroke-opacity:1"
         transform="matrix(-0.8,0,0,-0.8,-10,0)"
         inkscape:connector-curvature="0" />
    </marker>
    <marker
       inkscape:stockid="Arrow1Lend"
       orient="auto"
       refY="0"
       refX="0"
       id="marker1374"
       style="overflow:visible"
       inkscape:isstock="true">
      <path
         id="path1372"
         d="M 0,0 5,-5 -12.5,0 5,5 Z"
         style="fill:#000000;fill-opacity:1;fill-rule:evenodd;stroke:#000000;stroke-width:1.00000003pt;stroke-opacity:1"
         transform="matrix(-0.8,0,0,-0.8,-10,0)"
         inkscape:connector-curvature="0" />
    </marker>
    <marker
       inkscape:stockid="Arrow1Lend"
       orient="auto"
       refY="0"
       refX="0"
       id="marker1370"
       style="overflow:visible"
       inkscape:isstock="true">
      <path
         id="path1368"
         d="M 0,0 5,-5 -12.5,0 5,5 Z"
         style="fill:#000000;fill-opacity:1;fill-rule:evenodd;stroke:#000000;stroke-width:1.00000003pt;stroke-opacity:1"
         transform="matrix(-0.8,0,0,-0.8,-10,0)"
         inkscape:connector-curvature="0" />
    </marker>
    <marker
       inkscape:stockid="Arrow1Lstart"
       orient="auto"
       refY="0"
       refX="0"
       id="Arrow1Lstart"
       style="overflow:visible"
       inkscape:isstock="true">
      <path
         id="path1102"
         d="M 0,0 5,-5 -12.5,0 5,5 Z"
         style="fill:#000000;fill-opacity:1;fill-rule:evenodd;stroke:#000000;stroke-width:1.00000003pt;stroke-opacity:1"
         transform="matrix(0.8,0,0,0.8,10,0)"
         inkscape:connector-curvature="0" />
    </marker>
    <marker
       inkscape:stockid="Arrow1Lend"
       orient="auto"
       refY="0"
       refX="0"
       id="Arrow1Lend"
       style="overflow:visible"
       inkscape:isstock="true">
      <path
         id="path1105"
         d="M 0,0 5,-5 -12.5,0 5,5 Z"
         style="fill:#000000;fill-opacity:1;fill-rule:evenodd;stroke:#000000;stroke-width:1.00000003pt;stroke-opacity:1"
         transform="matrix(-0.8,0,0,-0.8,-10,0)"
         inkscape:connector-curvature="0" />
    </marker>
    <marker
       inkscape:stockid="Arrow1Lend"
       orient="auto"
       refY="0"
       refX="0"
       id="marker1575"
       style="overflow:visible"
       inkscape:isstock="true">
      <path
         id="path1573"
         d="M 0,0 5,-5 -12.5,0 5,5 Z"
         style="fill:#000000;fill-opacity:1;fill-rule:evenodd;stroke:#000000;stroke-width:1.00000003pt;stroke-opacity:1"
         transform="matrix(-0.8,0,0,-0.8,-10,0)"
         inkscape:connector-curvature="0" />
    </marker>
    <marker
       inkscape:stockid="Arrow1Mend"
       orient="auto"
       refY="0"
       refX="0"
       id="Arrow1Mend"
       style="overflow:visible"
       inkscape:isstock="true">
      <path
         id="path1124"
         d="M 0,0 5,-5 -12.5,0 5,5 Z"
         style="fill:#000000;fill-opacity:1;fill-rule:evenodd;stroke:#000000;stroke-width:1.00000003pt;stroke-opacity:1"
         transform="matrix(-0.4,0,0,-0.4,-4,0)"
         inkscape:connector-curvature="0" />
    </marker>
  </defs>
  <sodipodi:namedview
     id="base"
     pagecolor="#ffffff"
     bordercolor="#666666"
     borderopacity="1.0"
     inkscape:pageopacity="0.0"
     inkscape:pageshadow="2"
     inkscape:zoom="1.4"
     inkscape:cx="431.15191"
     inkscape:cy="267.30933"
     inkscape:document-units="mm"
     inkscape:current-layer="layer1"
     showgrid="false"
     inkscape:connector-spacing="22"
     inkscape:window-width="1853"
     inkscape:window-height="1025"
     inkscape:window-x="67"
     inkscape:window-y="27"
     inkscape:window-maximized="1"
     inkscape:lockguides="true"
     fit-margin-top="0"
     fit-margin-left="0"
     fit-margin-right="0"
     fit-margin-bottom="0" />
  <metadata
     id="metadata5">
    <rdf:RDF>
      <cc:Work
         rdf:about="">
        <dc:format>image/svg+xml</dc:format>
        <dc:type
           rdf:resource="http://purl.org/dc/dcmitype/StillImage" />
        <dc:title></dc:title>
      </cc:Work>
    </rdf:RDF>
  </metadata>
  <g
     inkscape:label="Layer 1"
     inkscape:groupmode="layer"
     id="layer1"
     transform="translate(41.826546,-18.105381)">
    <rect
       style="opacity:0.30500004;fill:#ffffff;fill-opacity:1;stroke:#ffffff;stroke-width:0.52899998;stroke-linecap:round;stroke-linejoin:miter;stroke-miterlimit:4;stroke-dasharray:1.58699999, 1.58699999;stroke-dashoffset:0;stroke-opacity:1"
       id="rect1100"
       width="9.5162678"
       height="27.382851"
       x="131.87604"
       y="104.78735"
       inkscape:connector-avoid="true" />
    <rect
       style="opacity:0.30500004;fill:#008000;fill-opacity:1;stroke:#000000;stroke-width:0.26499999;stroke-linecap:round;stroke-linejoin:miter;stroke-miterlimit:4;stroke-dasharray:none;stroke-dashoffset:0;stroke-opacity:1"
       id="rect1422-8"
       width="114.83664"
       height="86.997604"
       x="77.762985"
       y="65.366516"
       rx="0.53453904"
       ry="0.53453904" />
    <rect
       style="opacity:0.30500004;fill:#ececec;fill-opacity:1;stroke:#000000;stroke-width:0.26499999;stroke-linecap:round;stroke-linejoin:miter;stroke-miterlimit:4;stroke-dasharray:none;stroke-dashoffset:0;stroke-opacity:1"
       id="rect1422"
       width="112.26008"
       height="134.12624"
       x="-41.694046"
       y="18.237881"
       rx="0.53453904"
       ry="0.53453904" />
    <g
       id="g1012"
       transform="translate(-25.702417)">
      <rect
         y="21.177847"
         x="47.573975"
         height="16.036171"
         width="46.237629"
         id="rect946"
         style="opacity:1;fill:#ffffff;fill-opacity:1;stroke:#000000;stroke-width:0.5;stroke-linecap:round;stroke-linejoin:miter;stroke-miterlimit:4;stroke-dasharray:0.05, 0.05;stroke-dashoffset:0;stroke-opacity:1" />
      <text
         id="text819"
         y="27.879217"
         x="70.868492"
         style="font-style:normal;font-weight:normal;font-size:4.23333311px;line-height:1.25;font-family:sans-serif;letter-spacing:0px;word-spacing:0px;fill:#000000;fill-opacity:1;stroke:none;stroke-width:0.26458332"
         xml:space="preserve"><tspan
           style="text-align:center;text-anchor:middle;stroke-width:0.26458332"
           y="27.879217"
           x="70.868492"
           id="tspan817"
           sodipodi:role="line">Video recording</tspan><tspan
           id="tspan827"
           style="text-align:center;text-anchor:middle;stroke-width:0.26458332"
           y="33.170883"
           x="70.868492"
           sodipodi:role="line">(Marathon)</tspan></text>
    </g>
    <g
       id="g1018"
       transform="translate(-24.723005)">
      <rect
         y="43.27969"
         x="46.594563"
         height="16.036171"
         width="46.237629"
         id="rect946-6"
         style="opacity:1;fill:#ffffff;fill-opacity:1;stroke:#000000;stroke-width:0.5;stroke-linecap:round;stroke-linejoin:miter;stroke-miterlimit:4;stroke-dasharray:0.05, 0.05;stroke-dashoffset:0;stroke-opacity:1" />
      <text
         id="text823"
         y="49.98106"
         x="69.889076"
         style="font-style:normal;font-weight:normal;font-size:4.23333311px;line-height:1.25;font-family:sans-serif;text-align:center;letter-spacing:0px;word-spacing:0px;text-anchor:middle;fill:#000000;fill-opacity:1;stroke:none;stroke-width:0.26458332"
         xml:space="preserve"><tspan
           style="text-align:center;text-anchor:middle;stroke-width:0.26458332"
           y="49.98106"
           x="69.889076"
           id="tspan821"
           sodipodi:role="line">Automated tracking</tspan><tspan
           id="tspan825"
           style="text-align:center;text-anchor:middle;stroke-width:0.26458332"
           y="55.272728"
           x="69.889076"
           sodipodi:role="line">(ivTrace)</tspan></text>
    </g>
    <g
       id="g1024"
       transform="translate(-24.723009)"
       inkscape:connector-avoid="true">
      <rect
         y="65.401146"
         x="46.594566"
         height="16.036171"
         width="46.237629"
         id="rect946-6-0"
         style="opacity:1;fill:#ffffff;fill-opacity:1;stroke:#000000;stroke-width:0.5;stroke-linecap:round;stroke-linejoin:miter;stroke-miterlimit:4;stroke-dasharray:0.05, 0.05;stroke-dashoffset:0;stroke-opacity:1" />
      <text
         id="text823-3"
         y="72.102516"
         x="69.697876"
         style="font-style:normal;font-weight:normal;font-size:4.23333311px;line-height:1.25;font-family:sans-serif;text-align:center;letter-spacing:0px;word-spacing:0px;text-anchor:middle;fill:#000000;fill-opacity:1;stroke:none;stroke-width:0.26458332"
         xml:space="preserve"><tspan
           id="tspan825-7"
           style="text-align:center;text-anchor:middle;stroke-width:0.26458332"
           y="72.102516"
           x="69.697876"
           sodipodi:role="line">Manual reviewing</tspan><tspan
           id="tspan852"
           style="text-align:center;text-anchor:middle;stroke-width:0.26458332"
           y="77.39418"
           x="69.697876"
           sodipodi:role="line">(ivTrace)</tspan></text>
    </g>
    <rect
       style="opacity:1;fill:#ffffff;fill-opacity:1;stroke:#000000;stroke-width:0.5;stroke-linecap:round;stroke-linejoin:miter;stroke-miterlimit:4;stroke-dasharray:0.05, 0.05;stroke-dashoffset:0;stroke-opacity:1"
       id="rect946-6-0-6"
       width="46.237629"
       height="16.036171"
       x="21.87155"
       y="87.995232"
       inkscape:connector-avoid="true" />
    <text
       xml:space="preserve"
       style="font-style:normal;font-weight:normal;font-size:4.23333311px;line-height:1.25;font-family:sans-serif;text-align:center;letter-spacing:0px;word-spacing:0px;text-anchor:middle;fill:#000000;fill-opacity:1;stroke:none;stroke-width:0.26458332"
       x="42.817589"
       y="94.696602"
       id="text823-3-5"><tspan
         sodipodi:role="line"
         x="42.817589"
         y="94.696602"
         style="text-align:center;text-anchor:middle;stroke-width:0.26458332"
         id="tspan852-5">Triangulation</tspan><tspan
         sodipodi:role="line"
         x="42.817589"
         y="99.988266"
         style="text-align:center;text-anchor:middle;stroke-width:0.26458332"
         id="tspan877">(Matlab)</tspan></text>
    <g
       id="g1036"
       transform="translate(-24.723005)">
      <rect
         y="109.64407"
         x="46.594563"
         height="16.036171"
         width="46.237629"
         id="rect946-6-0-6-2"
         style="opacity:1;fill:#ffffff;fill-opacity:1;stroke:#000000;stroke-width:0.5;stroke-linecap:round;stroke-linejoin:miter;stroke-miterlimit:4;stroke-dasharray:0.05, 0.05;stroke-dashoffset:0;stroke-opacity:1" />
      <text
         id="text823-3-5-6"
         y="116.34544"
         x="69.687538"
         style="font-style:normal;font-weight:normal;font-size:4.23333311px;line-height:1.25;font-family:sans-serif;text-align:center;letter-spacing:0px;word-spacing:0px;text-anchor:middle;fill:#000000;fill-opacity:1;stroke:none;stroke-width:0.26458332"
         xml:space="preserve"><tspan
           id="tspan877-9"
           style="text-align:center;text-anchor:middle;stroke-width:0.26458332"
           y="116.34544"
           x="69.687538"
           sodipodi:role="line">Error calculation</tspan><tspan
           id="tspan902"
           style="text-align:center;text-anchor:middle;stroke-width:0.26458332"
           y="121.63711"
           x="69.687538"
           sodipodi:role="line">(Matlab)</tspan></text>
    </g>
    <g
       id="g1111"
       transform="translate(-145.12735,-0.67798615)">
      <rect
         style="opacity:1;fill:#ffffff;fill-opacity:1;stroke:#000000;stroke-width:0.5;stroke-linecap:round;stroke-linejoin:miter;stroke-miterlimit:4;stroke-dasharray:0.05, 0.05;stroke-dashoffset:0;stroke-opacity:1"
         id="rect946-6-0-2"
         width="46.237629"
         height="16.036171"
         x="104.99296"
         y="66.079132"
         transform="translate(0.97940826)" />
      <text
         id="text819-1"
         y="72.780502"
         x="129.15422"
         style="font-style:normal;font-weight:normal;font-size:4.23333311px;line-height:1.25;font-family:sans-serif;letter-spacing:0px;word-spacing:0px;fill:#000000;fill-opacity:1;stroke:none;stroke-width:0.26458332"
         xml:space="preserve"><tspan
           style="text-align:center;text-anchor:middle;stroke-width:0.26458332"
           y="72.780502"
           x="129.15422"
           id="tspan817-2"
           sodipodi:role="line">Camera Calibration</tspan><tspan
           id="tspan827-7"
           style="text-align:center;text-anchor:middle;stroke-width:0.26458332"
           y="78.072166"
           x="129.15422"
           sodipodi:role="line">(Matlab)</tspan></text>
    </g>
    <rect
       y="133.96559"
       x="21.871557"
       height="16.036171"
       width="46.237629"
       id="rect946-6-0-2-6"
       style="opacity:1;fill:#ffffff;fill-opacity:1;stroke:#000000;stroke-width:0.5;stroke-linecap:round;stroke-linejoin:miter;stroke-miterlimit:4;stroke-dasharray:0.05, 0.05;stroke-dashoffset:0;stroke-opacity:1" />
    <text
       xml:space="preserve"
       style="font-style:normal;font-weight:normal;font-size:4.23333311px;line-height:1.25;font-family:sans-serif;letter-spacing:0px;word-spacing:0px;fill:#000000;fill-opacity:1;stroke:none;stroke-width:0.26458332"
       x="44.964535"
       y="140.66696"
       id="text819-1-7"><tspan
         sodipodi:role="line"
         id="tspan817-2-5"
         x="44.964535"
         y="140.66696"
         style="text-align:center;text-anchor:middle;stroke-width:0.26458332">Final Triangulation</tspan><tspan
         sodipodi:role="line"
         x="44.964535"
         y="145.95863"
         style="text-align:center;text-anchor:middle;stroke-width:0.26458332"
         id="tspan827-7-3">(Matlab)</tspan></text>
    <g
       id="g999"
       transform="translate(-85.615355,67.351919)"
       inkscape:connector-avoid="true">
      <rect
         style="opacity:1;fill:#ffffff;fill-opacity:1;stroke:#000000;stroke-width:0.5;stroke-linecap:round;stroke-linejoin:miter;stroke-miterlimit:4;stroke-dasharray:0.05, 0.05;stroke-dashoffset:0;stroke-opacity:1"
         id="rect946-6-0-2-6-6"
         width="46.237629"
         height="16.036171"
         x="168.51344"
         y="20.643312" />
      <text
         id="text819-1-7-2"
         y="27.344683"
         x="191.6953"
         style="font-style:normal;font-weight:normal;font-size:4.23333311px;line-height:1.25;font-family:sans-serif;letter-spacing:0px;word-spacing:0px;fill:#000000;fill-opacity:1;stroke:none;stroke-width:0.26458332"
         xml:space="preserve"><tspan
           style="text-align:center;text-anchor:middle;stroke-width:0.26458332"
           y="27.344683"
           x="191.6953"
           id="tspan817-2-5-9"
           sodipodi:role="line">Camera Calibration</tspan><tspan
           id="tspan827-7-3-1"
           style="text-align:center;text-anchor:middle;stroke-width:0.26458332"
           y="32.636349"
           x="191.6953"
           sodipodi:role="line">(Opencv)</tspan></text>
    </g>
    <g
       id="g1005"
       transform="translate(-85.793527,67.084648)"
       inkscape:connector-avoid="true">
      <rect
         style="opacity:1;fill:#ffffff;fill-opacity:1;stroke:#000000;stroke-width:0.5;stroke-linecap:round;stroke-linejoin:miter;stroke-miterlimit:4;stroke-dasharray:0.05, 0.05;stroke-dashoffset:0;stroke-opacity:1"
         id="rect946-6-0-2-6-2"
         width="46.237629"
         height="16.036171"
         x="229.71815"
         y="20.910583" />
      <text
         id="text819-1-7-7"
         y="27.611958"
         x="252.90001"
         style="font-style:normal;font-weight:normal;font-size:4.23333311px;line-height:1.25;font-family:sans-serif;letter-spacing:0px;word-spacing:0px;fill:#000000;fill-opacity:1;stroke:none;stroke-width:0.26458332"
         xml:space="preserve"><tspan
           style="text-align:center;text-anchor:middle;stroke-width:0.26458332"
           y="27.611958"
           x="252.90001"
           id="tspan817-2-5-0"
           sodipodi:role="line">Triangulation</tspan><tspan
           id="tspan827-7-3-9"
           style="text-align:center;text-anchor:middle;stroke-width:0.26458332"
           y="32.903625"
           x="252.90001"
           sodipodi:role="line">(Opencv)</tspan></text>
    </g>
    <g
       id="g993"
       transform="translate(-87.93168,65.748314)"
       inkscape:connector-avoid="true">
      <rect
         style="opacity:1;fill:#ffffff;fill-opacity:1;stroke:#000000;stroke-width:0.5;stroke-linecap:round;stroke-linejoin:miter;stroke-miterlimit:4;stroke-dasharray:0.05, 0.05;stroke-dashoffset:0;stroke-opacity:1"
         id="rect946-6-0-2-6-3"
         width="46.237629"
         height="16.036171"
         x="231.85631"
         y="43.89576" />
      <text
         id="text819-1-7-6"
         y="50.597134"
         x="255.03816"
         style="font-style:normal;font-weight:normal;font-size:4.23333311px;line-height:1.25;font-family:sans-serif;letter-spacing:0px;word-spacing:0px;fill:#000000;fill-opacity:1;stroke:none;stroke-width:0.26458332"
         xml:space="preserve"><tspan
           style="text-align:center;text-anchor:middle;stroke-width:0.26458332"
           y="50.597134"
           x="255.03816"
           id="tspan817-2-5-06"
           sodipodi:role="line">Error calculation</tspan><tspan
           id="tspan827-7-3-2"
           style="text-align:center;text-anchor:middle;stroke-width:0.26458332"
           y="55.888802"
           x="255.03816"
           sodipodi:role="line">(Jenkins + python)</tspan></text>
    </g>
    <g
       id="g987"
       transform="translate(-86.149886,66.282848)"
       inkscape:connector-avoid="true">
      <rect
         style="opacity:1;fill:#ffffff;fill-opacity:1;stroke:#000000;stroke-width:0.5;stroke-linecap:round;stroke-linejoin:miter;stroke-miterlimit:4;stroke-dasharray:0.05, 0.05;stroke-dashoffset:0;stroke-opacity:1"
         id="rect946-6-0-2-6-61"
         width="46.237629"
         height="16.036171"
         x="169.04797"
         y="43.361225" />
      <text
         id="text819-1-7-8"
         y="50.062599"
         x="192.22983"
         style="font-style:normal;font-weight:normal;font-size:4.23333311px;line-height:1.25;font-family:sans-serif;letter-spacing:0px;word-spacing:0px;fill:#000000;fill-opacity:1;stroke:none;stroke-width:0.26458332"
         xml:space="preserve"><tspan
           style="text-align:center;text-anchor:middle;stroke-width:0.26458332"
           y="50.062599"
           x="192.22983"
           id="tspan817-2-5-7"
           sodipodi:role="line">Parameters checks</tspan><tspan
           id="tspan827-7-3-92"
           style="text-align:center;text-anchor:middle;stroke-width:0.26458332"
           y="55.354267"
           x="192.22983"
           sodipodi:role="line">(Jenkins + python)</tspan></text>
    </g>
    <g
       id="g1011"
       transform="translate(-87.976231,67.084648)">
      <rect
         style="opacity:1;fill:#ffffff;fill-opacity:1;stroke:#000000;stroke-width:0.5;stroke-linecap:round;stroke-linejoin:miter;stroke-miterlimit:4;stroke-dasharray:0.05, 0.05;stroke-dashoffset:0;stroke-opacity:1"
         id="rect946-6-0-2-6-0"
         width="46.237629"
         height="16.036171"
         x="201.38759"
         y="66.880943" />
      <text
         id="text819-1-7-23"
         y="73.582314"
         x="224.56944"
         style="font-style:normal;font-weight:normal;font-size:4.23333311px;line-height:1.25;font-family:sans-serif;letter-spacing:0px;word-spacing:0px;fill:#000000;fill-opacity:1;stroke:none;stroke-width:0.26458332"
         xml:space="preserve"><tspan
           style="text-align:center;text-anchor:middle;stroke-width:0.26458332"
           y="73.582314"
           x="224.56944"
           id="tspan817-2-5-75"
           sodipodi:role="line">Error report</tspan><tspan
           id="tspan827-7-3-922"
           style="text-align:center;text-anchor:middle;stroke-width:0.26458332"
           y="78.873978"
           x="224.56944"
           sodipodi:role="line">(Jenkins)</tspan></text>
    </g>
    <path
       style="fill:none;fill-rule:evenodd;stroke:#000000;stroke-width:0.26458332px;stroke-linecap:butt;stroke-linejoin:miter;stroke-opacity:1;marker-end:url(#marker1412)"
       d="m 44.990372,37.214018 0,6.065672"
       id="path1068"
       inkscape:connector-type="polyline"
       inkscape:connector-curvature="0"
       inkscape:connection-start="#g1012"
       inkscape:connection-end="#g1018" />
    <path
       style="fill:none;fill-rule:evenodd;stroke:#000000;stroke-width:0.26458332px;stroke-linecap:butt;stroke-linejoin:miter;stroke-opacity:1;marker-end:url(#marker1408)"
       d="m 44.990372,59.315861 0,6.085285"
       id="path1070"
       inkscape:connector-type="polyline"
       inkscape:connector-curvature="0"
       inkscape:connection-start="#g1018"
       inkscape:connection-end="#g1024" />
    <path
       style="fill:none;fill-rule:evenodd;stroke:#000000;stroke-width:0.26458332px;stroke-linecap:butt;stroke-linejoin:miter;stroke-opacity:1;marker-end:url(#marker1404)"
       d="m 44.990369,81.437317 -2e-6,6.557915"
       id="path1072"
       inkscape:connector-type="polyline"
       inkscape:connector-curvature="0"
       inkscape:connection-start="#g1024"
       inkscape:connection-end="#rect946-6-0-6" />
    <path
       style="fill:none;fill-rule:evenodd;stroke:#000000;stroke-width:0.26458332px;stroke-linecap:butt;stroke-linejoin:miter;stroke-opacity:1;marker-end:url(#marker1400)"
       d="m 44.990367,104.0314 2e-6,5.61267"
       id="path1074"
       inkscape:connector-type="polyline"
       inkscape:connector-curvature="0"
       inkscape:connection-start="#rect946-6-0-6"
       inkscape:connection-end="#g1036" />
    <path
       style="fill:none;fill-rule:evenodd;stroke:#000000;stroke-width:0.26458332px;stroke-linecap:butt;stroke-linejoin:miter;stroke-opacity:1;marker-end:url(#marker1420)"
       d="m 44.990372,125.68024 0,8.28535"
       id="path1078"
       inkscape:connector-type="polyline"
       inkscape:connector-curvature="0"
       inkscape:connection-start="#g1036"
       inkscape:connection-end="#rect946-6-0-2-6" />
    <path
       style="fill:none;fill-rule:evenodd;stroke:#000000;stroke-width:0.26458332px;stroke-linecap:butt;stroke-linejoin:miter;stroke-opacity:1;marker-end:url(#marker1386)"
       d="m 129.13572,96.013317 14.78891,0"
       id="path1084"
       inkscape:connector-type="polyline"
       inkscape:connector-curvature="0"
       inkscape:connection-start="#g999"
       inkscape:connection-end="#g1005" />
    <path
       style="fill:none;fill-rule:evenodd;stroke:#000000;stroke-width:0.26458332px;stroke-linecap:butt;stroke-linejoin:miter;stroke-opacity:1;marker-end:url(#marker1394)"
       d="m 167.04344,104.0314 0,5.61267"
       id="path1086"
       inkscape:connector-type="polyline"
       inkscape:connector-curvature="0"
       inkscape:connection-start="#g1005"
       inkscape:connection-end="#g993" />
    <path
       style="fill:none;fill-rule:evenodd;stroke:#000000;stroke-width:0.26499999;stroke-linecap:butt;stroke-linejoin:miter;stroke-miterlimit:4;stroke-dasharray:none;stroke-opacity:1;marker-end:url(#Arrow1Lend)"
       d="m 167.04344,125.68024 v 16.30344 h -7.39445"
       id="path1088"
       inkscape:connector-type="orthogonal"
       inkscape:connector-curvature="0"
       inkscape:connection-start="#g993"
       inkscape:connection-end="#g1011" />
    <path
       style="fill:none;fill-rule:evenodd;stroke:#000000;stroke-width:0.26458332px;stroke-linecap:butt;stroke-linejoin:miter;stroke-opacity:1;marker-end:url(#marker1370)"
       d="m 106.0169,125.68024 v 16.30344 h 7.39446"
       id="path1090"
       inkscape:connector-type="orthogonal"
       inkscape:connector-curvature="0"
       inkscape:connection-start="#g987"
       inkscape:connection-end="#g1011" />
    <path
       style="fill:none;fill-rule:evenodd;stroke:#000000;stroke-width:0.26458332px;stroke-linecap:butt;stroke-linejoin:miter;stroke-opacity:1;marker-end:url(#marker1390)"
       d="M 68.109186,73.419231 H 106.0169 v 14.576"
       id="path1092"
       inkscape:connector-type="orthogonal"
       inkscape:connector-curvature="0"
       inkscape:connection-start="#g1024"
       inkscape:connection-end="#g999" />
    <path
       style="fill:none;fill-rule:evenodd;stroke:#000000;stroke-width:0.26458332px;stroke-linecap:butt;stroke-linejoin:miter;stroke-opacity:1;marker-end:url(#marker1378)"
       d="m 68.109186,141.98368 h 7.394447 V 96.013317 h 7.394455"
       id="path1094"
       inkscape:connector-type="orthogonal"
       inkscape:connector-curvature="0"
       inkscape:connection-start="#rect946-6-0-2-6"
       inkscape:connection-end="#g999" />
    <path
       style="fill:none;fill-rule:evenodd;stroke:#000000;stroke-width:0.26458332px;stroke-linecap:butt;stroke-linejoin:miter;stroke-opacity:1;marker-end:url(#marker1382)"
       d="m 106.0169,104.0314 0,5.61267"
       id="path1096"
       inkscape:connector-type="polyline"
       inkscape:connector-curvature="0"
       inkscape:connection-start="#g999"
       inkscape:connection-end="#g987" />
    <path
       style="fill:none;fill-rule:evenodd;stroke:#000000;stroke-width:0.26458332px;stroke-linecap:butt;stroke-linejoin:miter;stroke-opacity:1;marker-end:url(#marker1374)"
       d="m -16.036169,81.437317 v 14.576 H 21.87155"
       id="path1098"
       inkscape:connector-type="orthogonal"
       inkscape:connector-curvature="0"
       inkscape:connection-start="#g1111"
       inkscape:connection-end="#rect946-6-0-6" />
    <path
       style="fill:none;fill-rule:evenodd;stroke:#000000;stroke-width:0.26458332px;stroke-linecap:butt;stroke-linejoin:miter;stroke-opacity:1;marker-end:url(#marker1416)"
       d="m 68.109186,73.419231 h 98.934254 v 14.576"
       id="path1396"
       inkscape:connector-type="orthogonal"
       inkscape:connector-curvature="0"
       inkscape:connection-start="#g1024"
       inkscape:connection-end="#g1005" />
    <text
       xml:space="preserve"
       style="font-style:normal;font-weight:normal;font-size:4.23333311px;line-height:1.25;font-family:sans-serif;letter-spacing:0px;word-spacing:0px;fill:#000000;fill-opacity:1;stroke:none;stroke-width:0.26458332"
       x="-39.823158"
       y="23.048733"
       id="text1426"><tspan
         sodipodi:role="line"
         id="tspan1424"
         x="-39.823158"
         y="23.048733"
         style="stroke-width:0.26458332">Original workflow</tspan></text>
    <text
       xml:space="preserve"
       style="font-style:normal;font-weight:normal;font-size:4.23333311px;line-height:1.25;font-family:sans-serif;letter-spacing:0px;word-spacing:0px;fill:#000000;fill-opacity:1;stroke:none;stroke-width:0.26458332"
       x="79.612556"
       y="70.186981"
       id="text1426-9"><tspan
         sodipodi:role="line"
         id="tspan1424-7"
         x="79.612556"
         y="70.186981"
         style="stroke-width:0.26458332">Reproduced workflow</tspan></text>
  </g>
</svg>
